Building DAG of jobs...
Provided cores: 4
Rules claiming more threads will be scaled down.
Job stats:
job                count
---------------  -------
all                    1
preprocess_data        2
read_data              1
train_model            4
total                  8

Select jobs to execute...
Execute 1 jobs...

[Sun May  5 21:02:23 2024]
localrule read_data:
    input: data/iris.csv
    output: data/data.csv
    jobid: 3
    reason: Missing output files: data/data.csv
    resources: tmpdir=C:\Users\new\AppData\Local\Temp

[Sun May  5 21:02:23 2024]
Finished job 3.
1 of 8 steps (12%) done
Select jobs to execute...
Execute 2 jobs...

[Sun May  5 21:02:23 2024]
localrule preprocess_data:
    input: data/data.csv
    output: data/preprocessed_data_second_method.csv
    jobid: 6
    reason: Missing output files: data/preprocessed_data_second_method.csv; Input files updated by another job: data/data.csv
    wildcards: preprocessing_method=second_method
    resources: tmpdir=C:\Users\new\AppData\Local\Temp

[Sun May  5 21:02:23 2024]
localrule preprocess_data:
    input: data/data.csv
    output: data/preprocessed_data_first_method.csv
    jobid: 2
    reason: Missing output files: data/preprocessed_data_first_method.csv; Input files updated by another job: data/data.csv
    wildcards: preprocessing_method=first_method
    resources: tmpdir=C:\Users\new\AppData\Local\Temp

RuleException:
WorkflowError in file C:\Users\new\vscode\Snakefile, line 25:
Failed to open source file C:\Users\new\vscode\scripts/preprocess_second_method.py
FileNotFoundError: [Errno 2] No such file or directory: 'C:\\Users\\new\\vscode\\scripts/preprocess_second_method.py'
RuleException:
WorkflowError in file C:\Users\new\vscode\Snakefile, line 25:
Failed to open source file C:\Users\new\vscode\scripts/preprocess_first_method.py
FileNotFoundError: [Errno 2] No such file or directory: 'C:\\Users\\new\\vscode\\scripts/preprocess_first_method.py'
[Sun May  5 21:02:23 2024]
[Sun May  5 21:02:23 2024]
Error in rule preprocess_data:
    jobid: 6
    input: data/data.csv
    output: data/preprocessed_data_second_method.csv

Error in rule preprocess_data:
    jobid: 2
    input: data/data.csv
    output: data/preprocessed_data_first_method.csv

Shutting down, this might take some time.
Exiting because a job execution failed. Look above for error message
Complete log: .snakemake\log\2024-05-05T210223.327048.snakemake.log
WorkflowError:
At least one job did not complete successfully.
